{
	"$schema": "https://json.schemastore.org/block.json",
	"apiVersion": 2,
	"name": "cwb/quiz",
	"title": "CWB: Quiz",
	"icon": "media-code",
	"category": "common",
	"attributes": {
		"bgColor": {
			"type": "string"
		},
		"mediaURL": {
			"type": "string"
		},
		"mediaID": {
			"type": "number"
		}
	},
	"editorScript": "file:./block.js",
	"style": "file:./style.css"
}
