{
	"$schema": "https://json.schemastore.org/block.json",
	"apiVersion": 2,
	"name": "cwb/repeater-item--basic",
	"title": "Repeater Item",
	"ancestor": [
		"cwb/repeater",
		"cwb/slider"
	],
	"icon": "admin-page",
	"category": "common",
	"attributes": {
		"bgColor": {
			"type": "string"
		},
		"mediaURL": {
			"type": "string"
		},
		"mediaID": {
			"type": "number"
		}
	},
	"editorScript": "file:./block.js",
	"style": "file:./style.css"
}
